{"photos":{"page":1, "pages":507, "perpage":10, "total":"5070", "photo":[{"id":"5535629337", "owner":"30378931@N00", "secret":"185a99ab79", "server":"5172", "farm":6, "title":"photo.JPG", "ispublic":1, "isfriend":0, "isfamily":0, "description":{"_content":"--"}, "dateupload":"1300408328", "url_z":"http:\/\/farm6.static.flickr.com\/5172\/5535629337_185a99ab79_z.jpg", "height_z":"640", "width_z":"480", "latitude":0, "longitude":0, "accuracy":0}, {"id":"5536098180", "owner":"30378931@N00", "secret":"ed7391c9c3", "server":"5257", "farm":6, "title":"Fwd:", "ispublic":1, "isfriend":0, "isfamily":0, "description":{"_content":""}, "dateupload":"1300404639", "url_z":"http:\/\/farm6.static.flickr.com\/5257\/5536098180_ed7391c9c3_z.jpg", "height_z":"380", "width_z":"640", "latitude":0, "longitude":0, "accuracy":0}, {"id":"5532022270", "owner":"30378931@N00", "secret":"1b3878b9df", "server":"5139", "farm":6, "title":"photo.JPG", "ispublic":1, "isfriend":0, "isfamily":0, "description":{"_content":""}, "dateupload":"1300278373", "url_z":"http:\/\/farm6.static.flickr.com\/5139\/5532022270_1b3878b9df_z.jpg", "height_z":"640", "width_z":"478", "latitude":0, "longitude":0, "accuracy":0}, {"id":"5530529299", "owner":"30378931@N00", "secret":"7ca284e651", "server":"5175", "farm":6, "title":"Yes.", "ispublic":1, "isfriend":0, "isfamily":0, "description":{"_content":""}, "dateupload":"1300242962", "url_z":"http:\/\/farm6.static.flickr.com\/5175\/5530529299_7ca284e651_z.jpg", "height_z":"640", "width_z":"360", "latitude":0, "longitude":0, "accuracy":0}, {"id":"5530858652", "owner":"30378931@N00", "secret":"562027479e", "server":"5137", "farm":6, "title":"photo.JPG", "ispublic":1, "isfriend":0, "isfamily":0, "description":{"_content":""}, "dateupload":"1300236045", "url_z":"http:\/\/farm6.static.flickr.com\/5137\/5530858652_562027479e_z.jpg", "height_z":"640", "width_z":"478", "latitude":0, "longitude":0, "accuracy":0}, {"id":"5530263605", "owner":"30378931@N00", "secret":"2e494dd021", "server":"5012", "farm":6, "title":"photo.JPG", "ispublic":1, "isfriend":0, "isfamily":0, "description":{"_content":""}, "dateupload":"1300235741", "url_z":"http:\/\/farm6.static.flickr.com\/5012\/5530263605_2e494dd021_z.jpg", "height_z":"579", "width_z":"600", "latitude":0, "longitude":0, "accuracy":0}, {"id":"5529965664", "owner":"30378931@N00", "secret":"69e6d8703e", "server":"5180", "farm":6, "title":"photo.JPG", "ispublic":1, "isfriend":0, "isfamily":0, "description":{"_content":""}, "dateupload":"1300213032", "url_z":"http:\/\/farm6.static.flickr.com\/5180\/5529965664_69e6d8703e_z.jpg", "height_z":"512", "width_z":"640", "latitude":0, "longitude":0, "accuracy":0}, {"id":"5527533863", "owner":"30378931@N00", "secret":"b6487be4b3", "server":"5139", "farm":6, "title":"photo.PNG", "ispublic":1, "isfriend":0, "isfamily":0, "description":{"_content":""}, "dateupload":"1300152799", "url_z":"http:\/\/farm6.static.flickr.com\/5139\/5527533863_b6487be4b3_z.jpg", "height_z":"640", "width_z":"427", "latitude":0, "longitude":0, "accuracy":0}, {"id":"5522431191", "owner":"30378931@N00", "secret":"1de50f168f", "server":"5099", "farm":6, "title":"photo.JPG", "ispublic":1, "isfriend":0, "isfamily":0, "description":{"_content":""}, "dateupload":"1300030467", "url_z":"http:\/\/farm6.static.flickr.com\/5099\/5522431191_1de50f168f_z.jpg", "height_z":"640", "width_z":"478", "latitude":0, "longitude":0, "accuracy":0}, {"id":"5520933791", "owner":"30378931@N00", "secret":"8f0792c98e", "server":"5297", "farm":6, "title":"photo.JPG", "ispublic":1, "isfriend":0, "isfamily":0, "description":{"_content":""}, "dateupload":"1299982002", "url_z":"http:\/\/farm6.static.flickr.com\/5297\/5520933791_8f0792c98e_z.jpg", "height_z":"640", "width_z":"478", "latitude":0, "longitude":0, "accuracy":0}]}, "stat":"ok"}